placeId,name,myRouteUniqueCode
gosaikunda001,Dhunche Route,dhuncheroute001
gosaikunda001,Sundarijal Route,sundarijal001
mardi001,Kande Route,kande001
ghandruk001,Ghandruk Route,ghandruk001
achham001,ROUTE 1,acchamroute001
achham001,route 2,achhamroute002